{
  "results": [
    {
      "popularity": 323.707,
      "vote_count": 1260,
      "video": false,
      "poster_path": "/7W0G3YECgDAfnuiHG91r8WqgIOe.jpg",
      "id": 446893,
      "adult": false,
      "backdrop_path": "/qsxhnirlp7y4Ae9bd11oYJSX59j.jpg",
      "original_language": "en",
      "original_title": "Trolls World Tour",
      "genre_ids": [
        16,
        10751,
        35,
        14,
        12,
        10402
      ],
      "title": "Trolls World Tour",
      "vote_average": 7.6,
      "overview": "Queen Poppy and Branch make a surprising discovery — there are other Troll worlds beyond their own, and their distinct differences create big clashes between these various tribes. When a mysterious threat puts all of the Trolls across the land in danger, Poppy, Branch, and their band of friends must embark on an epic quest to create harmony among the feuding Trolls to unite them against certain doom.",
      "release_date": "2020-09-25"
    },
    {
      "popularity": 117.311,
      "vote_count": 472,
      "video": false,
      "poster_path": "/ahf5cVdooMAlDRiJOZQNuLqa1Is.jpg",
      "id": 556984,
      "adult": false,
      "backdrop_path": "/v8Nf6Y1qL1Q3PWTBezXNPPaXqza.jpg",
      "original_language": "en",
      "original_title": "The Trial of the Chicago 7",
      "genre_ids": [
        18,
        36,
        53
      ],
      "title": "The Trial of the Chicago 7",
      "vote_average": 7.8,
      "overview": "What was intended to be a peaceful protest at the 1968 Democratic National Convention turned into a violent clash with police and the National Guard. The organizers of the protest — including Abbie Hoffman, Jerry Rubin, Tom Hayden and Bobby Seale — were charged with conspiracy to incite a riot and the trial that followed was one of the most notorious in history.",
      "release_date": "2020-10-02"
    },
    {
      "popularity": 94.712,
      "vote_count": 9634,
      "video": false,
      "poster_path": "/7IiTTgloJzvGI1TAYymCfbfl3vT.jpg",
      "id": 496243,
      "adult": false,
      "backdrop_path": "/ApiBzeaa95TNYliSbQ8pJv4Fje7.jpg",
      "original_language": "ko",
      "original_title": "기생충",
      "genre_ids": [
        35,
        53,
        18
      ],
      "title": "Parasite",
      "vote_average": 8.5,
      "overview": "All unemployed, Ki-taek's family takes peculiar interest in the wealthy and glamorous Parks for their livelihood until they get entangled in an unexpected incident.",
      "release_date": "2020-01-31"
    },
    {
      "popularity": 72.544,
      "vote_count": 46,
      "video": false,
      "poster_path": "/nphsStbtAuJ2IaXtCvDXDwMUF5N.jpg",
      "id": 399363,
      "adult": false,
      "backdrop_path": "/pPNMk2TQVIhNn2IFHVJo1jcXQmR.jpg",
      "original_language": "en",
      "original_title": "Wendy",
      "genre_ids": [
        12,
        14,
        10751
      ],
      "title": "Wendy",
      "vote_average": 6.6,
      "overview": "A re-imagining of \"Peter Pan\" from the point of view of Wendy Darling, who finds herself lost on a mysterious island where aging and time have come unglued. She must fight to save her family, her freedom and the joyous spirit of youth.",
      "release_date": "2020-09-25"
    },
    {
      "popularity": 55.942,
      "vote_count": 14,
      "video": false,
      "poster_path": "/e98dJUitAoKLwmzjQ0Yxp1VQrnU.jpg",
      "id": 571384,
      "adult": false,
      "backdrop_path": "/5HahZPsGGaDgnFb68J49ZwdwU0b.jpg",
      "original_language": "en",
      "original_title": "Come Play",
      "genre_ids": [
        27
      ],
      "title": "Come Play",
      "vote_average": 7.6,
      "overview": "A lonely young boy feels different from everyone else. Desperate for a friend, he seeks solace and refuge in his ever-present cell phone and tablet. When a mysterious creature uses the boy’s devices against him to break into our world, his parents must fight to save their son from the monster beyond the screen.",
      "release_date": "2020-10-30"
    },
    {
      "popularity": 41.517,
      "vote_count": 147,
      "video": false,
      "poster_path": "/2QKNREj8xPHShu993QAySoGDCwu.jpg",
      "id": 585077,
      "adult": false,
      "backdrop_path": "/o7B34PaxCee7KcwvkqYYXef4gXa.jpg",
      "original_language": "ja",
      "original_title": "海獣の子供",
      "genre_ids": [
        16,
        14,
        12,
        9648
      ],
      "title": "Children of the Sea",
      "vote_average": 7.2,
      "overview": "Ruka is a young girl whose parents are separated and whose father works in an aquarium. When two boys, Umi and Sora, who were raised in the sea by dugongs, are brought to the aquarium, Ruka feels drawn to them and begins to realize that she has the same sort of supernatural connection to the ocean that they do. Umi and Sora's special power seems to be connected to strange events that have been occurring more and more frequently, such as the appearance of sea creatures far from their home territory and the disappearance of aquarium animals around the world. However, the exact nature of the boys' power and of the abnormal events is unknown, and Ruka gets drawn into investigating the mystery that surrounds her new friends.",
      "release_date": "2020-10-02"
    },
    {
      "popularity": 36.257,
      "vote_count": 45,
      "video": false,
      "poster_path": "/zeD4PabP6099gpE0STWJrJrCBCs.jpg",
      "id": 553604,
      "adult": false,
      "backdrop_path": "/tYkMtYPNpUdLdzGDUTC5atyMh9X.jpg",
      "original_language": "en",
      "original_title": "Honest Thief",
      "genre_ids": [
        28,
        53,
        80,
        18
      ],
      "title": "Honest Thief",
      "vote_average": 6.8,
      "overview": "A bank robber tries to turn himself in because he's falling in love and wants to live an honest life...but when he realizes the Feds are more corrupt than him, he must fight back to clear his name.",
      "release_date": "2020-10-23"
    },
    {
      "popularity": 26.279,
      "id": 11423,
      "video": false,
      "vote_count": 1849,
      "vote_average": 8.1,
      "title": "Memories of Murder",
      "release_date": "2020-10-23",
      "original_language": "ko",
      "original_title": "살인의 추억",
      "genre_ids": [
        80,
        18,
        53
      ],
      "backdrop_path": "/2NArMoObkAbnIPvqlHC3gRGsfBb.jpg",
      "adult": false,
      "overview": "1986 Gyunggi Province. The body of a young woman is found brutally raped and murdered. Two months later, a series of rapes and murders commences under similar circumstances. And in a country that had never known such crimes, the dark whispers about a serial murderer grow louder. A special task force is set up in the area, with two local detectives Park Doo-Man and Jo Young-Goo joined by a detective from Seoul who requested to be assigned to the case.",
      "poster_path": "/dVZJByLhVpbKp4YKAChM12MxSNn.jpg"
    },
    {
      "popularity": 21.512,
      "vote_count": 111,
      "video": false,
      "poster_path": "/glwOyoD0Pzxzyb3l7nELEgjSjQ8.jpg",
      "id": 606625,
      "adult": false,
      "backdrop_path": "/uz22R8kBpIaUC8pkOKZm7jZfLGN.jpg",
      "original_language": "en",
      "original_title": "Follow Me",
      "genre_ids": [
        27,
        12,
        53
      ],
      "title": "Follow Me",
      "vote_average": 7,
      "overview": "A social media personality travels with his friends to Moscow to capture new content for his successful VLOG. Always pushing the limits and catering to a growing audience, they enter a cold world of mystery, excess, and danger. When the lines between real life and social media are blurred, the group must fight to escape, and survive.",
      "release_date": "2020-11-06"
    },
    {
      "popularity": 14.675,
      "vote_count": 46,
      "video": false,
      "poster_path": "/i9UIjhnD5QNyhXrA0nZMhRpod5b.jpg",
      "id": 504582,
      "adult": false,
      "backdrop_path": "/s3X7UVfnmycegqfkWSp4oEplJbn.jpg",
      "original_language": "ro",
      "original_title": "La Gomera",
      "genre_ids": [
        80,
        53
      ],
      "title": "The Whistlers",
      "vote_average": 6.4,
      "overview": "A Romanian police officer, determined to free from prison a crooked businessman who knows where a mobster's money is hidden, must learn the difficult ancestral whistling language (Silbo Gomero) used on the island of Gomera.",
      "release_date": "2020-10-16"
    },
    {
      "popularity": 9.811,
      "vote_count": 43,
      "video": false,
      "poster_path": "/wfuh6vTYLGspvkYoBy8GCaJx9Ur.jpg",
      "id": 477428,
      "adult": false,
      "backdrop_path": "/9GKpIKjfUdAAw2krRNcr6lWQUli.jpg",
      "original_language": "cs",
      "original_title": "Nabarvené ptáče",
      "genre_ids": [
        18,
        10752
      ],
      "title": "The Painted Bird",
      "vote_average": 7.1,
      "overview": "A young boy wanders Eastern Europe during World War II.",
      "release_date": "2020-11-06"
    },
    {
      "popularity": 8.984,
      "vote_count": 62,
      "video": false,
      "poster_path": "/warC8GJApWssmU9vXXZDY7OrU9o.jpg",
      "id": 514684,
      "adult": false,
      "backdrop_path": "/fsi2ULliGoBIj9t30TR6VDxQKKd.jpg",
      "original_language": "ru",
      "original_title": "Папа, сдохни",
      "genre_ids": [
        28,
        35,
        80,
        53
      ],
      "title": "Why Don't You Just Die!",
      "vote_average": 6.6,
      "overview": "Andrey, a detective and the world's most horrible father, brings together a terrible group of people in his apartment: his resentful actress daughter, an angry thug, and a cheated cop. Each one of them has a reason to want revenge..",
      "release_date": "2020-09-25"
    },
    {
      "popularity": 7.094,
      "vote_count": 7,
      "video": false,
      "poster_path": "/uQjxpEYktu36ZiWKfn0t0FySmXl.jpg",
      "id": 575776,
      "adult": false,
      "backdrop_path": "/1cMiwN34P5W8NqstPWhmT8spsDb.jpg",
      "original_language": "en",
      "original_title": "Saint Maud",
      "genre_ids": [
        18,
        27,
        9648
      ],
      "title": "Saint Maud",
      "vote_average": 7.3,
      "overview": "Having recently found God, self-effacing young nurse Maud arrives at a plush home to care for Amanda, a hedonistic dancer left frail from a chronic illness. When a chance encounter with a former colleague throws up hints of a dark past, it becomes clear there is more to sweet Maud than meets the eye.",
      "release_date": "2020-10-23"
    },
    {
      "popularity": 6.616,
      "vote_count": 22,
      "video": false,
      "poster_path": "/joGHKGWsNY3Snw7w3z7vdqsc7xK.jpg",
      "id": 615761,
      "adult": false,
      "backdrop_path": "/7M3gZ0Ec1bd7VviQ3b7Z3lbYXH6.jpg",
      "original_language": "de",
      "original_title": "Undine",
      "genre_ids": [
        18,
        14,
        10749
      ],
      "title": "Undine",
      "vote_average": 7,
      "overview": "Undine works as a historian lecturing on Berlin's urban development. When the man she loves leaves her, the ancient myth catches up with her. But falling in love anew, Undine reworks the myth of the mysterious water spirit as a modern fairy-tale in a disenchanted world.",
      "release_date": "2020-10-09"
    },
    {
      "popularity": 6.089,
      "id": 702525,
      "video": false,
      "vote_count": 6,
      "vote_average": 4.6,
      "title": "Bigfoot Family",
      "release_date": "2020-10-23",
      "original_language": "en",
      "original_title": "Bigfoot Family",
      "genre_ids": [
        16,
        12
      ],
      "backdrop_path": "/ig5OFPDn2ULswOi4TYka3F2V5eJ.jpg",
      "adult": false,
      "overview": "Bigfoot, Adam's father, wants to use his fame for a good cause. Protecting a large wildlife reserve in Alaska sounds like the perfect opportunity! When Bigfoot mysteriously disappears without a trace, Adam and his animal friends will brave anything to find him again and save the nature reserve.",
      "poster_path": "/vn7sNO6CD8FBHBEVcOiNv08mjy1.jpg"
    },
    {
      "popularity": 5.255,
      "vote_count": 28,
      "video": false,
      "poster_path": "/fRIBlFJiMNm7DkphQgcHgDS2Pvx.jpg",
      "id": 348672,
      "adult": false,
      "backdrop_path": "/dQgqxHUdcNSmhiM4zebekZnnUII.jpg",
      "original_language": "sv",
      "original_title": "Om det oändliga",
      "genre_ids": [
        18,
        35
      ],
      "title": "About Endlessness",
      "vote_average": 6.6,
      "overview": "Inspired by “One Thousand and One Nights,” the celebrated collection of Middle Eastern and Indian folk tales, “About Endlessness,” in its juxtaposition of tableaux capturing moments in life, explores the preciousness and beauty of our existence, awakening in us the wish to maintain this eternal treasure and pass it on.",
      "release_date": "2020-10-09"
    },
    {
      "popularity": 4.18,
      "vote_count": 0,
      "video": false,
      "poster_path": "/xBfhyWKVgivFCjMueqopdq27bl0.jpg",
      "id": 643537,
      "adult": false,
      "backdrop_path": "/4LuJCO1edIbLVGx99uv7luDoIJt.jpg",
      "original_language": "sv",
      "original_title": "Nelly Rapp - monsteragent",
      "genre_ids": [],
      "title": "Nelly Rapp Monster Agent",
      "vote_average": 0,
      "overview": "Nelly Rapp is an ordinary girl who is going to spend the autumn school holidays with her uncle Hannibal. Well, maybe not that ordinary – she’s going to be a monster agent. You know, an agent that fights monsters and ghosts. That’s right, they do exist. They’re right here amongst us, but you only see them if you believe in them and scratch the surface…",
      "release_date": "2020-11-06"
    },
    {
      "popularity": 2.519,
      "id": 608232,
      "video": false,
      "vote_count": 1,
      "vote_average": 6,
      "title": "Tove",
      "release_date": "2020-10-02",
      "original_language": "sv",
      "original_title": "Tove",
      "genre_ids": [
        18
      ],
      "backdrop_path": "/qYhuS2mEjZXpD2XPZ3tPUO0PNHG.jpg",
      "adult": false,
      "overview": "Helsinki, 1945. The end of the war brings a new sense of artistic and social freedom for painter Tove Jansson. Modern art, dizzying parties and an open relationship with a married politician: Her unconventional life puts her at odds with her sculptor father’s strict ideals. Tove’s desire for liberty is put to the test when she meets theatre director Vivica Bandler. As she struggles with her personal life, her creative endeavours take her in an unexpected direction. While focusing her artistic dreams on her painting, the work that started as a side project, the melancholic, haunting tales she told scared children in bomb shelters, rapidly takes on a life of its own. The exploits of the Moomins, infused with inspiration from her own life, bring Tove international fame and financial freedom. But as she begins to find her artistic identity she has to learn to find herself.",
      "poster_path": "/adStgMg4WizU2Fe3Tcc8TA7iUv7.jpg"
    },
    {
      "popularity": 1.451,
      "vote_count": 0,
      "video": false,
      "poster_path": null,
      "id": 752088,
      "adult": false,
      "backdrop_path": null,
      "original_language": "pt",
      "original_title": "Complexos",
      "genre_ids": [
        99
      ],
      "title": "Complexes",
      "vote_average": 0,
      "overview": "The short documentary ‘Complexos‘ features intimate and emotional views on how residents of favelas in Rio de Janeiro use media and arts to raise their voices and act for justice, dignity and respect. ‘Complexos’ is part of a collaborative process between the Finland-based Anti-Racism Media activism Alliance (ARMA Alliance) and the favela-based audiovisual collective Cafuné na Laje.",
      "release_date": "2020-10-22"
    },
    {
      "popularity": 1.325,
      "id": 664379,
      "video": false,
      "vote_count": 0,
      "vote_average": 0,
      "title": "Ricky Rapper and the Wrong Vincent",
      "release_date": "2020-10-09",
      "original_language": "fi",
      "original_title": "Risto Räppääjä ja väärä Vincent",
      "genre_ids": [
        10751,
        35,
        10402
      ],
      "backdrop_path": "/4rA6EjcZvGGT3K8y8EuhPi7pVPG.jpg",
      "adult": false,
      "overview": "Rauha Rapper gets a strange prediction: a genius has been born to her immediate family. When Rauha finds a drawing Ricky has made, she is certain that Ricky is Vincent Van Gogh reborn. She decides to show Ricky's drawing to the intendent of the Art Museum. At the same time, a sketch of one of Van Gogh's paintings is found in Finland! This discovery starts an exciting chain of events, and in the end, the janitor of the Art Museum, a keen amateur detective, helps Ricky and Nelly to solve the mystery.",
      "poster_path": "/3KPtpop8tDAVGs7Fu1NFi4DHavN.jpg"
    }
  ],
  "page": 1,
  "total_results": 24,
  "dates": {
    "maximum": "2020-11-12",
    "minimum": "2020-09-25"
  },
  "total_pages": 2
}